<?xml version="1.0" encoding="utf-8"?>
<!-- Generator: Adobe Illustrator 22.1.0, SVG Export Plug-In . SVG Version: 6.00 Build 0)  -->
<svg version="1.1" id="Слой_1" xmlns="http://www.w3.org/2000/svg" xmlns:xlink="http://www.w3.org/1999/xlink" x="0px" y="0px"
	 viewBox="0 0 155.6 113.4" style="enable-background:new 0 0 155.6 113.4;" xml:space="preserve">
<style type="text/css">
	.st0{fill:#19252F;}
	.st1{fill:#405362;}
	.st2{fill:#29A9E0;}
	.st3{fill:#424243;}
	.st4{fill:#B1B1B1;}
	.st5{fill:#FFFFFF;}
	.st6{fill:#505050;}
	.st7{fill:url(#SVGID_1_);}
	.st8{fill:url(#SVGID_2_);}
	.st9{fill:url(#SVGID_3_);}
	.st10{fill:url(#SVGID_4_);}
	.st11{fill:url(#SVGID_5_);}
	.st12{fill:url(#SVGID_6_);}
	.st13{fill:url(#SVGID_7_);}
	.st14{fill:url(#SVGID_8_);}
	.st15{fill:url(#SVGID_9_);}
	.st16{fill:url(#SVGID_10_);}
	.st17{opacity:0.64;fill:#FFFFFF;}
	.st18{fill:#232222;}
	.st19{opacity:0.64;fill:#232222;}
	.st20{fill:#E4E4E4;}
	.st21{fill:#FCEBED;}
	.st22{fill:#666666;}
	.st23{fill:#1A1A1A;}
	.st24{fill:#FFF294;}
	.st25{fill:#FCF9BE;}
	.st26{fill:#333333;}
	.st27{fill:#95D2FC;}
	.st28{fill:#CACACA;}
	.st29{fill:#4D4D4D;}
	.st30{fill:#F0F0F0;}
</style>
<g>
	
		<rect x="69.9" y="51.1" transform="matrix(0.9318 0.3631 -0.3631 0.9318 28.7127 -21.9474)" class="st30" width="5.7" height="28.6"/>
	<path class="st30" d="M69.4,80.9c0,0.8-0.3,1.5-0.8,2c-0.5,0.5-1.2,0.8-2,0.8H40.8V78h25.8C68.2,78,69.4,79.3,69.4,80.9z"/>
	<g>
		<path class="st5" d="M114.9,23.2l-3.2,25.3c-0.1,1-1,1.6-2,1.5l-58.2-7.4c-1-0.1-1.6-1-1.5-2l3.2-25.3c0.1-1,1-1.6,2-1.5l58.2,7.4
			C114.3,21.3,115,22.2,114.9,23.2z"/>
	</g>
	<g>
		<path class="st20" d="M111.9,46.6L111.9,46.6l2.7-21.5l0,0c4.4,0.6,7.6,4.6,7,9l-0.7,5.5C120.4,44,116.3,47.1,111.9,46.6z"/>
	</g>
	<g>
		<path class="st23" d="M122.6,44.8l-2.3-0.3l1.9-15.3l2.3,0.3c1.8,0.2,3,1.8,2.8,3.6l-1.1,8.9C125.9,43.7,124.3,45,122.6,44.8z"/>
	</g>
	<path class="st20" d="M88.3,47.2c0,0.3-0.1,0.7-0.2,1c0,0.1,0,0.1,0,0.2c0,0.1,0,0.2-0.1,0.2c0,0.1,0,0.2-0.1,0.2
		c0,0.1,0,0.2-0.1,0.2c-1.4,4.2-5.3,7-9.7,7c-0.1,0-0.2,0-0.2,0c-0.1,0-0.1,0-0.2,0c-0.1,0-0.1,0-0.2,0c0,0,0,0,0,0
		c-0.1,0-0.2,0-0.3,0c-0.1,0-0.2,0-0.3,0c0,0,0,0-0.1,0c-0.1,0-0.2,0-0.2,0c-0.1,0-0.1,0-0.2,0c-1.4-0.2-2.7-0.8-3.8-1.5
		c-3.1-2-4.9-5.6-4.5-9.5c0-0.1,0-0.2,0-0.3L88.3,47.2z"/>
	<path class="st20" d="M46.5,80.9c0,1-0.1,2-0.4,2.9c-1.2,4.2-5.1,7.3-9.8,7.3V70.7c0.7,0,1.3,0.1,1.9,0.2c3.8,0.7,6.8,3.5,7.9,7.2
		C46.4,78.9,46.5,79.9,46.5,80.9z"/>
	<circle class="st30" cx="66.6" cy="80.9" r="7.8"/>
	<circle class="st29" cx="66.6" cy="80.9" r="2.9"/>
	<path class="st20" d="M36.3,66.9v28c0,0.3-0.2,0.5-0.5,0.5H29c-0.3,0-0.5-0.2-0.5-0.5v-28c0-0.3,0.2-0.5,0.5-0.5h6.9
		C36.1,66.4,36.3,66.6,36.3,66.9z"/>
	<path class="st28" d="M38.3,70.9l-1.9,20.2V70.7C37,70.7,37.6,70.7,38.3,70.9z"/>
	<path class="st28" d="M87.9,49.1l-19.8-4.4l20.2,2.6C88.2,47.9,88.1,48.5,87.9,49.1z"/>
	<path class="st28" d="M116.5,25.4l-4.4,19.8l2.6-20.2C115.3,25.1,115.9,25.3,116.5,25.4z"/>
	<path class="st28" d="M59.7,84.7c-0.1-0.1-0.1-0.2-0.2-0.3c-0.1-0.2-0.2-0.4-0.4-0.7c-0.4-1-0.7-2.1-0.7-3.2c0-0.9,0.1-1.7,0.4-2.5
		h0.3c-0.3,0.9-0.5,1.8-0.5,2.8C58.7,82.2,59.1,83.6,59.7,84.7z"/>
	<path class="st28" d="M72.7,76c-0.1-0.1-0.1-0.2-0.2-0.3c-0.2-0.2-0.3-0.4-0.5-0.6c-0.7-0.8-1.7-1.4-2.7-1.9
		c-0.8-0.3-1.6-0.5-2.5-0.6L66.7,73c0.9,0,1.9,0.2,2.8,0.6C70.8,74.2,71.9,75,72.7,76z"/>
	<path class="st28" d="M72.9,54.7c2.1,1.6,4.1,1.9,6.4,1.7l0.1-0.4C76.9,56.3,74.8,55.8,72.9,54.7z"/>
	<path class="st20" d="M89,21.8c-1.5,11.4-9.7,20.3-20.2,23c0,0-0.1,0-0.1,0c-0.2,0-0.4,0.1-0.6,0.1c0-0.1,0-0.2,0-0.3l-16.6-2.1
		c-1-0.1-1.6-1-1.5-2l3.2-25.3c0.1-1,1-1.6,2-1.5l34,4.3C89.2,19.3,89.1,20.5,89,21.8z"/>
	<path d="M126.3,31.4l-3.1-0.4c-0.3,0-0.5-0.3-0.4-0.6v0c0-0.3,0.3-0.5,0.6-0.4l3.1,0.4c0.3,0,0.5,0.3,0.4,0.6v0
		C126.9,31.3,126.6,31.5,126.3,31.4z"/>
	<path d="M126.1,33.3l-3.1-0.4c-0.3,0-0.5-0.3-0.4-0.6l0,0c0-0.3,0.3-0.5,0.6-0.4l3.1,0.4c0.3,0,0.5,0.3,0.4,0.6l0,0
		C126.6,33.1,126.4,33.3,126.1,33.3z"/>
	<path d="M125.9,35.1l-3.1-0.4c-0.3,0-0.5-0.3-0.4-0.6l0,0c0-0.3,0.3-0.5,0.6-0.4l3.1,0.4c0.3,0,0.5,0.3,0.4,0.6l0,0
		C126.4,35,126.1,35.2,125.9,35.1z"/>
	<path d="M125.6,37l-3.1-0.4c-0.3,0-0.5-0.3-0.4-0.6l0,0c0-0.3,0.3-0.5,0.6-0.4l3.1,0.4c0.3,0,0.5,0.3,0.4,0.6l0,0
		C126.2,36.8,125.9,37,125.6,37z"/>
	<path d="M125.4,38.8l-3.1-0.4c-0.3,0-0.5-0.3-0.4-0.6l0,0c0-0.3,0.3-0.5,0.6-0.4l3.1,0.4c0.3,0,0.5,0.3,0.4,0.6l0,0
		C125.9,38.6,125.7,38.8,125.4,38.8z"/>
	<path d="M125.2,40.6l-3.1-0.4c-0.3,0-0.5-0.3-0.4-0.6l0,0c0-0.3,0.3-0.5,0.6-0.4l3.1,0.4c0.3,0,0.5,0.3,0.4,0.6l0,0
		C125.7,40.5,125.4,40.7,125.2,40.6z"/>
	<path d="M124.9,42.5l-3.1-0.4c-0.3,0-0.5-0.3-0.4-0.6l0,0c0-0.3,0.3-0.5,0.6-0.4l3.1,0.4c0.3,0,0.5,0.3,0.4,0.6v0
		C125.5,42.3,125.2,42.5,124.9,42.5z"/>
	<path d="M124.7,44.3l-3.1-0.4c-0.3,0-0.5-0.3-0.4-0.6l0,0c0-0.3,0.3-0.5,0.6-0.4l3.1,0.4c0.3,0,0.5,0.3,0.4,0.6v0
		C125.2,44.2,125,44.4,124.7,44.3z"/>
</g>
</svg>
