<?xml version="1.0" encoding="utf-8"?>
<!-- Generator: Adobe Illustrator 22.1.0, SVG Export Plug-In . SVG Version: 6.00 Build 0)  -->
<svg version="1.1" id="Слой_1" xmlns="http://www.w3.org/2000/svg" xmlns:xlink="http://www.w3.org/1999/xlink" x="0px" y="0px"
	 viewBox="0 0 56.7 56.7" style="enable-background:new 0 0 56.7 56.7;" xml:space="preserve">
<style type="text/css">
	.st0{fill:#19252F;}
	.st1{fill:#405362;}
	.st2{fill:#29A9E0;}
	.st3{fill:#424243;}
	.st4{fill:#B1B1B1;}
	.st5{fill:#FFFFFF;}
	.st6{fill:#505050;}
	.st7{fill:url(#SVGID_1_);}
	.st8{fill:url(#SVGID_2_);}
	.st9{fill:url(#SVGID_3_);}
	.st10{fill:url(#SVGID_4_);}
	.st11{fill:url(#SVGID_5_);}
	.st12{fill:url(#SVGID_6_);}
	.st13{fill:url(#SVGID_7_);}
	.st14{fill:url(#SVGID_8_);}
	.st15{fill:url(#SVGID_9_);}
	.st16{fill:url(#SVGID_10_);}
	.st17{opacity:0.64;fill:#FFFFFF;}
	.st18{fill:#232222;}
	.st19{opacity:0.64;fill:#232222;}
	.st20{fill:#E4E4E4;}
	.st21{fill:#FCEBED;}
	.st22{fill:#666666;}
	.st23{fill:#1A1A1A;}
	.st24{fill:#FFF294;}
	.st25{fill:#FCF9BE;}
	.st26{fill:#333333;}
	.st27{fill:#95D2FC;}
	.st28{fill:#CACACA;}
	.st29{fill:#4D4D4D;}
	.st30{fill:#F0F0F0;}
</style>
<g>
	<path class="st0" d="M52.9,29.1c-0.7,13.3-11.6,24-25,23.7c-13.4-0.3-23.8-11.4-24-24.6c0-2.4-3.7-2.4-3.7,0
		c0.3,15.2,12.3,27.9,27.7,28.2c15.5,0.3,27.9-12.2,28.7-27.4C56.6,26.8,53,26.8,52.9,29.1L52.9,29.1z"/>
	<path class="st1" d="M19.3,5.4c13.6-4.9,28.1,2.1,32.5,15.9c0.7,2.2,4.2,1.3,3.5-1c-4.9-15.6-21.5-24-37-18.5
		C16.2,2.7,17.1,6.2,19.3,5.4L19.3,5.4z"/>
	<path class="st2" d="M5.3,20c1.5-4.3,4.1-7.9,7.6-10.8c1.8-1.5-0.8-4.1-2.6-2.6C6.3,10,3.5,14.2,1.7,19.1C0.9,21.3,4.5,22.2,5.3,20
		L5.3,20z"/>
	<g>
		<path class="st0" d="M25.8,18.6L25.8,18.6c-0.5,0-0.9-0.4-0.9-0.9v-2.6c0-0.5,0.4-0.9,0.9-0.9h0c0.5,0,0.9,0.4,0.9,0.9v2.6
			C26.7,18.2,26.3,18.6,25.8,18.6z"/>
		<path class="st0" d="M25.8,41.6L25.8,41.6c-0.5,0-0.9-0.4-0.9-0.9v-2.6c0-0.5,0.4-0.9,0.9-0.9h0c0.5,0,0.9,0.4,0.9,0.9v2.6
			C26.7,41.2,26.3,41.6,25.8,41.6z"/>
		<path class="st0" d="M12.2,27.9L12.2,27.9c0-0.5,0.4-0.9,0.9-0.9h2.6c0.5,0,0.9,0.4,0.9,0.9v0c0,0.5-0.4,0.9-0.9,0.9H13
			C12.6,28.8,12.2,28.4,12.2,27.9z"/>
		<path class="st0" d="M16.2,37.7l-0.2-0.2c-0.3-0.3-0.3-0.8,0-1.1l2-2c0.3-0.3,0.8-0.3,1.1,0l0.2,0.2c0.3,0.3,0.3,0.8,0,1.1l-2,2
			C17,38,16.5,38,16.2,37.7z"/>
		<path class="st0" d="M16.1,18.3l0.2-0.2c0.3-0.3,0.8-0.3,1.1,0l2,2c0.3,0.3,0.3,0.8,0,1.1l-0.2,0.2c-0.3,0.3-0.8,0.3-1.1,0l-2-2
			C15.8,19.1,15.8,18.6,16.1,18.3z"/>
		<path class="st0" d="M26.7,34.4c0-0.5-0.4-0.9-0.9-0.9c0,0,0,0,0,0c-3.1,0-5.6-2.5-5.6-5.6s2.5-5.6,5.6-5.6c0,0,0,0,0,0
			c0.5,0,0.9-0.4,0.9-0.9v0c0-0.5-0.4-0.9-0.8-0.9c0,0,0,0-0.1,0c-4,0-7.3,3.3-7.3,7.3s3.3,7.3,7.3,7.3c0,0,0,0,0.1,0
			C26.3,35.3,26.7,34.9,26.7,34.4L26.7,34.4z"/>
		<g>
			<path class="st0" d="M36.2,24.5l-3.4,1.9l0.1,0.3c0.1,0.6,0.2,1.2,0,1.7c0,0.1,0,0.2-0.1,0.3l-0.1,0.3l3.3,2l6.1-1.6
				c0.5-0.1,0.9,0.1,1.1,0.5c0,0.1,0.1,0.2,0.1,0.3c0,0.1,0,0.3-0.1,0.4C43.2,30.8,43,31,42.8,31l-4.1,1.1l-0.5,0.1l3.8,2.2
				c0.3,0.1,0.4,0.4,0.4,0.7c0,0.1,0,0.3-0.1,0.4l0.2,0.1l-0.2,0c-0.1,0.2-0.3,0.3-0.5,0.4c-0.2,0.1-0.4,0-0.6-0.1l-2.8-1.6l-1-0.8
				l1.3,4.8c0.1,0.2,0,0.5-0.1,0.7c-0.1,0.2-0.3,0.3-0.5,0.4c-0.4,0.1-0.9-0.2-1-0.7l-1.6-6l0-0.2l-3.3-2l-0.2,0.2
				c-0.5,0.5-1.1,0.8-1.7,1l-0.3,0.1v3.9l4.5,4.5c0.2,0.2,0.2,0.4,0.2,0.6c0,0.2-0.1,0.4-0.2,0.6c-0.1,0.2-0.4,0.2-0.6,0.2
				c-0.2,0-0.4-0.1-0.6-0.2l-3.4-3.4v4.4c0,0.2-0.1,0.4-0.2,0.6c-0.1,0.1-0.3,0.2-0.5,0.2c-0.2,0-0.4-0.1-0.6-0.2
				c-0.2-0.2-0.3-0.4-0.3-0.7V31c0-0.2,0.1-0.3,0.2-0.5c0.1-0.1,0.3-0.2,0.4-0.2h0c0.9,0.1,1.8-0.4,2.4-1.2l0,0
				c0-0.1,0.1-0.1,0.1-0.2c0-0.1,0.1-0.1,0.1-0.2c0-0.1,0.1-0.1,0.1-0.2c0,0,0,0,0-0.1c0-0.1,0-0.1,0.1-0.2c0-0.1,0-0.1,0-0.2
				c0.1-0.6,0-1.3-0.3-1.9c0-0.1-0.1-0.2-0.2-0.2c0-0.1-0.1-0.1-0.2-0.2c-0.2-0.2-0.4-0.4-0.6-0.5c-0.1,0-0.1-0.1-0.2-0.1
				c-0.1,0-0.1-0.1-0.2-0.1c-0.1,0-0.2-0.1-0.3-0.1l0,0c-0.1,0-0.2-0.1-0.3-0.1c-0.1,0-0.2,0-0.3,0l-0.1,0c0,0-0.1,0-0.1,0
				c-0.2,0-0.3-0.1-0.4-0.2c-0.1-0.1-0.2-0.3-0.2-0.5V13.1c0-0.2,0.1-0.4,0.2-0.6c0.1-0.1,0.3-0.2,0.5-0.2c0,0,0,0,0.1,0
				c0.2,0,0.4,0.1,0.5,0.2c0.2,0.2,0.3,0.4,0.3,0.7v4.3l3.4-3.4c0.2-0.2,0.4-0.2,0.6-0.2c0.1,0,0.1,0,0.2,0l0.1,0
				c0.1,0,0.3,0.1,0.4,0.2c0.3,0.3,0.2,0.8-0.1,1.2l-4.5,4.5v3.9l0.3,0.1c0.2,0.1,0.3,0.1,0.5,0.2l0,0c0.1,0.1,0.3,0.1,0.4,0.2
				c0.2,0.1,0.4,0.3,0.6,0.4l0.4,0.4l3.4-1.9l1.7-6.1c0-0.1,0-0.1,0.1-0.1c0,0,0-0.1,0-0.1c0-0.1,0.1-0.1,0.1-0.2
				c0.1-0.1,0.2-0.2,0.3-0.2c0,0,0.1,0,0.1,0c0,0,0.1,0,0.1,0c0,0,0,0,0.1,0c0.1,0,0.3,0,0.4,0.1c0.4,0.1,0.6,0.6,0.5,1.1l-1,3.8
				l-0.2,0.7l3.8-2.1c0.1,0,0.1-0.1,0.2-0.1c0.1,0,0.1,0,0.2,0c0,0,0.1,0,0.1,0c0,0,0.1,0,0.1,0c0.1,0,0.1,0,0.2,0.1
				c0.1,0,0.1,0.1,0.2,0.1c0.1,0.1,0.1,0.1,0.1,0.2c0.1,0.1,0.1,0.2,0.1,0.3c0,0.1,0,0.1,0,0.2c0,0,0,0.1,0,0.1
				c-0.1,0.2-0.1,0.3-0.3,0.4c0,0-0.1,0.1-0.1,0.1l-3.8,2.2l4.6,1.3c0,0,0.1,0,0.1,0c0.1,0,0.1,0,0.2,0.1c0,0,0,0,0,0
				c0,0,0.1,0.1,0.1,0.1c0.1,0,0.1,0.1,0.1,0.2c0.1,0.2,0.1,0.4,0.1,0.6l0,0v0.1c0,0,0,0,0,0.1l0,0c0,0,0,0.1-0.1,0.1
				c0,0,0,0-0.1,0.1c0,0,0,0-0.1,0.1c-0.2,0.2-0.5,0.2-0.8,0.2L36.2,24.5z"/>
		</g>
	</g>
</g>
</svg>
