<?xml version="1.0" encoding="utf-8"?>
<!-- Generator: Adobe Illustrator 22.1.0, SVG Export Plug-In . SVG Version: 6.00 Build 0)  -->
<svg version="1.1" id="Слой_1" xmlns="http://www.w3.org/2000/svg" xmlns:xlink="http://www.w3.org/1999/xlink" x="0px" y="0px"
	 viewBox="0 0 56.7 56.7" style="enable-background:new 0 0 56.7 56.7;" xml:space="preserve">
<style type="text/css">
	.st0{fill:#19252F;}
	.st1{fill:#405362;}
	.st2{fill:#29A9E0;}
	.st3{fill:#424243;}
	.st4{fill:#B1B1B1;}
	.st5{fill:#FFFFFF;}
	.st6{fill:#505050;}
	.st7{fill:url(#SVGID_1_);}
	.st8{fill:url(#SVGID_2_);}
	.st9{fill:url(#SVGID_3_);}
	.st10{fill:url(#SVGID_4_);}
	.st11{fill:url(#SVGID_5_);}
	.st12{fill:url(#SVGID_6_);}
	.st13{fill:url(#SVGID_7_);}
	.st14{fill:url(#SVGID_8_);}
	.st15{fill:url(#SVGID_9_);}
	.st16{fill:url(#SVGID_10_);}
	.st17{opacity:0.64;fill:#FFFFFF;}
	.st18{fill:#232222;}
	.st19{opacity:0.64;fill:#232222;}
	.st20{fill:#E4E4E4;}
	.st21{fill:#FCEBED;}
	.st22{fill:#666666;}
	.st23{fill:#1A1A1A;}
	.st24{fill:#FFF294;}
	.st25{fill:#FCF9BE;}
	.st26{fill:#333333;}
	.st27{fill:#95D2FC;}
	.st28{fill:#CACACA;}
	.st29{fill:#4D4D4D;}
	.st30{fill:#F0F0F0;}
</style>
<g>
	<g>
		<path class="st0" d="M53,29.1C52.3,42.5,41.3,53.3,27.8,53C14.4,52.7,3.9,41.6,3.7,28.3c0-2.4-3.7-2.4-3.7,0
			c0.3,15.3,12.4,28.1,27.8,28.4C43.4,57,55.9,44.4,56.7,29.1C56.8,26.7,53.1,26.8,53,29.1L53,29.1z"/>
		<path class="st1" d="M19.3,5.3c13.6-4.9,28.3,2.1,32.7,16c0.7,2.3,4.3,1.3,3.6-1C50.6,4.6,33.9-3.9,18.3,1.7
			C16.1,2.5,17.1,6.1,19.3,5.3L19.3,5.3z"/>
		<path class="st2" d="M5.1,20c1.6-4.3,4.2-7.9,7.6-10.9c1.8-1.5-0.8-4.1-2.6-2.6C6.2,9.9,3.3,14.1,1.6,19C0.8,21.2,4.3,22.2,5.1,20
			L5.1,20z"/>
		<path class="st0" d="M29.4,26.5V13.3c0-1.5-2.3-1.5-2.3,0v13.2c-1.8,0.5-3.1,2.1-3.1,4c0,1.9,1.3,3.5,3.1,4v7.2
			c0,1.5,2.3,1.5,2.3,0v-7.2c1.8-0.5,3.1-2.1,3.1-4C32.5,28.6,31.2,27,29.4,26.5z M29.4,32c-0.3,0.2-0.7,0.4-1.2,0.4
			c-0.4,0-0.8-0.1-1.2-0.4c-0.5-0.3-0.8-0.9-0.8-1.5c0-0.6,0.3-1.2,0.8-1.5c0.3-0.2,0.7-0.4,1.2-0.4c0.4,0,0.8,0.1,1.2,0.4
			c0.5,0.3,0.8,0.9,0.8,1.5C30.2,31.1,29.9,31.7,29.4,32z"/>
		<path class="st0" d="M18.6,20.5v-7.2c0-1.5-2.3-1.5-2.3,0v7.2c-1.8,0.5-3.1,2.1-3.1,4c0,1.9,1.3,3.5,3.1,4v13.2
			c0,1.5,2.3,1.5,2.3,0V28.5c1.8-0.5,3.1-2.1,3.1-4C21.7,22.6,20.4,21,18.6,20.5z M18.6,26c-0.3,0.2-0.7,0.4-1.2,0.4
			s-0.8-0.1-1.2-0.4c-0.5-0.3-0.8-0.9-0.8-1.5s0.3-1.2,0.8-1.5c0.3-0.2,0.7-0.4,1.2-0.4s0.8,0.1,1.2,0.4c0.5,0.3,0.8,0.9,0.8,1.5
			S19.1,25.7,18.6,26z"/>
		<path class="st0" d="M40.2,20.5v-7.2c0-1.5-2.3-1.5-2.3,0v7.2c-1.8,0.5-3.1,2.1-3.1,4c0,1.9,1.3,3.5,3.1,4v13.2
			c0,1.5,2.3,1.5,2.3,0V28.5c1.8-0.5,3.1-2.1,3.1-4C43.3,22.6,42,21,40.2,20.5z M40.2,26c-0.3,0.2-0.7,0.4-1.2,0.4
			c-0.4,0-0.8-0.1-1.2-0.4c-0.5-0.3-0.8-0.9-0.8-1.5s0.3-1.2,0.8-1.5c0.3-0.2,0.7-0.4,1.2-0.4c0.4,0,0.8,0.1,1.2,0.4
			c0.5,0.3,0.8,0.9,0.8,1.5S40.7,25.7,40.2,26z"/>
	</g>
</g>
</svg>
