<?xml version="1.0" encoding="utf-8"?>
<!-- Generator: Adobe Illustrator 22.1.0, SVG Export Plug-In . SVG Version: 6.00 Build 0)  -->
<svg version="1.1" id="Слой_1" xmlns="http://www.w3.org/2000/svg" xmlns:xlink="http://www.w3.org/1999/xlink" x="0px" y="0px"
	 viewBox="0 0 155.6 113.4" style="enable-background:new 0 0 155.6 113.4;" xml:space="preserve">
<style type="text/css">
	.st0{fill:#19252F;}
	.st1{fill:#405362;}
	.st2{fill:#29A9E0;}
	.st3{fill:#424243;}
	.st4{fill:#B1B1B1;}
	.st5{fill:#FFFFFF;}
	.st6{fill:#505050;}
	.st7{fill:url(#SVGID_1_);}
	.st8{fill:url(#SVGID_2_);}
	.st9{fill:url(#SVGID_3_);}
	.st10{fill:url(#SVGID_4_);}
	.st11{fill:url(#SVGID_5_);}
	.st12{fill:url(#SVGID_6_);}
	.st13{fill:url(#SVGID_7_);}
	.st14{fill:url(#SVGID_8_);}
	.st15{fill:url(#SVGID_9_);}
	.st16{fill:url(#SVGID_10_);}
	.st17{opacity:0.64;fill:#FFFFFF;}
	.st18{fill:#232222;}
	.st19{opacity:0.64;fill:#232222;}
	.st20{fill:#E4E4E4;}
	.st21{fill:#FCEBED;}
	.st22{fill:#666666;}
	.st23{fill:#1A1A1A;}
	.st24{fill:#FFF294;}
	.st25{fill:#FCF9BE;}
	.st26{fill:#333333;}
	.st27{fill:#95D2FC;}
	.st28{fill:#CACACA;}
	.st29{fill:#4D4D4D;}
	.st30{fill:#F0F0F0;}
</style>
<g>
	<rect x="31.8" y="20.8" class="st28" width="90.9" height="49.9"/>
	<rect x="34.3" y="23.2" class="st26" width="85.9" height="45.3"/>
	<path class="st29" d="M90.9,23.2C87.5,41.1,78,56.9,64.8,68.5H34.3V23.2H90.9z"/>
	<path class="st29" d="M24.9,95.8H14.6c-0.8,0-1.4-0.8-1.1-1.5l0.7-2c0.1-0.4,0.2-0.8,0.2-1.2v-4.9h2V91c0,0.4-0.1,0.8-0.2,1.2
		l-0.7,1.9h8.3l-0.7-1.9C23.1,91.8,23,91.4,23,91v-4.9h2v4.9c0,0.4,0.1,0.8,0.2,1.2l0.7,2C26.3,95,25.7,95.8,24.9,95.8z"/>
	<path class="st29" d="M139.9,95.8h-10.3c-0.8,0-1.4-0.8-1.1-1.5l0.7-2c0.1-0.4,0.2-0.8,0.2-1.2v-4.9h2V91c0,0.4-0.1,0.8-0.2,1.2
		l-0.7,1.9h8.3l-0.7-1.9c-0.1-0.4-0.2-0.8-0.2-1.2v-4.9h2v4.9c0,0.4,0.1,0.8,0.2,1.2l0.7,2C141.3,95,140.7,95.8,139.9,95.8z"/>
	<rect x="12.1" y="56" class="st28" width="15.4" height="30.1"/>
	<circle class="st26" cx="19.8" cy="76.3" r="5.6"/>
	<circle cx="19.8" cy="64.3" r="4.1"/>
	<circle class="st23" cx="19.8" cy="76.3" r="3.3"/>
	<circle class="st26" cx="19.8" cy="63.3" r="5.6"/>
	<circle class="st23" cx="19.8" cy="63.3" r="3.3"/>
	<rect x="127.1" y="56" class="st28" width="15.4" height="30.1"/>
	<circle class="st26" cx="134.8" cy="76.3" r="5.6"/>
	<circle cx="134.8" cy="64.3" r="4.1"/>
	<circle class="st23" cx="134.8" cy="76.3" r="3.3"/>
	<circle class="st26" cx="134.8" cy="63.3" r="5.6"/>
	<circle class="st23" cx="134.8" cy="63.3" r="3.3"/>
</g>
</svg>
