<?xml version="1.0" encoding="utf-8"?>
<!-- Generator: Adobe Illustrator 22.1.0, SVG Export Plug-In . SVG Version: 6.00 Build 0)  -->
<svg version="1.1" id="Слой_1" xmlns="http://www.w3.org/2000/svg" xmlns:xlink="http://www.w3.org/1999/xlink" x="0px" y="0px"
	 viewBox="0 0 56.7 56.7" style="enable-background:new 0 0 56.7 56.7;" xml:space="preserve">
<style type="text/css">
	.st0{fill:#19252F;}
	.st1{fill:#405362;}
	.st2{fill:#29A9E0;}
	.st3{fill:#424243;}
	.st4{fill:#B1B1B1;}
	.st5{fill:#FFFFFF;}
	.st6{fill:#505050;}
	.st7{fill:url(#SVGID_1_);}
	.st8{fill:url(#SVGID_2_);}
	.st9{fill:url(#SVGID_3_);}
	.st10{fill:url(#SVGID_4_);}
	.st11{fill:url(#SVGID_5_);}
	.st12{fill:url(#SVGID_6_);}
	.st13{fill:url(#SVGID_7_);}
	.st14{fill:url(#SVGID_8_);}
	.st15{fill:url(#SVGID_9_);}
	.st16{fill:url(#SVGID_10_);}
	.st17{opacity:0.64;fill:#FFFFFF;}
	.st18{fill:#232222;}
	.st19{opacity:0.64;fill:#232222;}
	.st20{fill:#E4E4E4;}
	.st21{fill:#FCEBED;}
	.st22{fill:#666666;}
	.st23{fill:#1A1A1A;}
	.st24{fill:#FFF294;}
	.st25{fill:#FCF9BE;}
	.st26{fill:#333333;}
	.st27{fill:#95D2FC;}
	.st28{fill:#CACACA;}
	.st29{fill:#4D4D4D;}
	.st30{fill:#F0F0F0;}
</style>
<g>
	<g>
		<path class="st0" d="M53,29.1C52.3,42.5,41.3,53.3,27.8,53C14.4,52.7,3.9,41.6,3.7,28.3c0-2.4-3.7-2.4-3.7,0
			c0.3,15.3,12.4,28.1,27.8,28.4C43.4,57,55.9,44.4,56.7,29.1C56.8,26.7,53.1,26.8,53,29.1L53,29.1z"/>
		<path class="st1" d="M19.3,5.3c13.6-4.9,28.3,2.1,32.7,16c0.7,2.3,4.3,1.3,3.6-1C50.6,4.6,33.9-3.9,18.3,1.7
			C16.1,2.5,17.1,6.1,19.3,5.3L19.3,5.3z"/>
		<path class="st2" d="M5.1,20c1.6-4.3,4.2-7.9,7.6-10.9c1.8-1.5-0.8-4.1-2.6-2.6C6.2,9.9,3.3,14.1,1.6,19C0.8,21.2,4.3,22.2,5.1,20
			L5.1,20z"/>
		<path class="st0" d="M38.2,24.2h-2.8v-4.6c0,0,0-0.1,0-0.1c0-0.1,0-0.1,0-0.1c0,0,0,0,0,0c-0.3-3.8-3.3-7-7.3-7
			c-3.9,0-7.2,3.3-7.3,7.2c0,0,0,0.1,0,0.1v4.6h-2.7c-0.6,0-1.1,0.5-1.1,1.1v16.3c0,0.6,0.5,1.1,1.1,1.1h20.1c0.3,0,0.6-0.1,0.8-0.3
			c0,0,0,0,0,0c0,0,0,0,0,0c0.2-0.2,0.3-0.4,0.3-0.8V25.3C39.3,24.7,38.8,24.2,38.2,24.2z M23,20.7c0,0,0-0.7,0-1.1
			c0-0.4,0-0.8,0.1-1.1c1-5,8.6-5,9.8,0c0.1,0.3,0.1,0.7,0.2,1.1c0,0.4,0,1.1,0,1.1v3.5H23V20.7z M37.1,40.5H19.2V26.4h17.9V40.5z"
			/>
		<path class="st0" d="M30,32.4c0,0.6-0.3,1.2-0.8,1.5v1.3c0,0.6-0.5,1.1-1.1,1.1c-0.6,0-1.1-0.5-1.1-1.1v-1.4
			c-0.5-0.3-0.7-0.9-0.7-1.5c0-1,0.8-1.9,1.9-1.9C29.2,30.6,30,31.4,30,32.4z"/>
	</g>
</g>
</svg>
